{
  "type": "service_account",
  "project_id": "pc-api-8717560348823120216-346",
  "private_key_id": "fcc610d713f64a40abd6b447dcce6b22e2d55bcc",
  "private_key": "-----BEGIN PRIVATE KEY-----\nMIIEvgIBADANBgkqhkiG9w0BAQEFAASCBKgwggSkAgEAAoIBAQDko+Z5Au/+xS+1\n3HMO0uSkKkwPRltTw9nSvtArQK4hzZPqeeLf54uJ2fk7yBo9yAJr+Rj4oinTW+3u\nQPthTl1q0LUyK/A/zwnZw84EXDq0sR3XFlh9CF7KBZsevoa8qS9hcHUgJzxAbV1/\nKiuS15zFxxN5T+sN2NB+ahS1RKuz1kVClYUjJCNoHsoSYEzLgwZlzT6TmjYoYBH6\n/7K3T8aG6qhk7E4VYFMKLrMttkS4i8axS2CJXgijEEx7u9b9/3Dyjrtr3aW8ANmv\nbohLjgWmYx5bcDld6+4Bn85F9WcbOinv2W6qBl01tuKoF3QQQ9NYn8XQqJs4YBEx\n0GLHgxfhAgMBAAECggEAB3fIAm9YtekBui5ZZA76MKzV/6YOu8FuTFkhqlaqPrM8\n2oAr1iA1Y/sGjjqRYC+3zogxazDmw1R3GhytaUalO/oq/5jE99yUEooNS6yp2Tbe\nGzqhCMfHdXtHOghDP9xvI6mylaqFErNPxg8d+GWfpVZvhHtFBEEu7CtxrOBcPbCD\n6V0rP7XMf4Y5ErNIBi3azZfgcXmnTLuJEOAuG5xzeuiJb1HImW+IVawTCngYVpqt\n5XDH4g+vgQK3AYEsTEoQsWhaWzrh89PEv0hwdbi9PiDQSWwQz9wFEzAOc5XDVbOQ\nARFNRxDQZCde6RdL9eDW9YcdV/VXTB0aYtu4N9qncQKBgQD0ChnKE1ODrYhNmUnh\nkHxuqK2HKC+Ac/JtotoNMBYa047GkmVcI2jWHBwXhkr6JGJDBy8d5sGmh6D28QKH\nNNtm0az9lN8k/Qf/2Mwy2ZRiANcEml9bjHVCk7CqpHylFH+0IIlDm5tFhX3lwlP7\nxwk8zRpP5+xcVn9pnxNCG2hUGQKBgQDv2JbsvMqW5mweV5Q0V4NzVrXaFF78k95k\nmgOBLUOQ7bBLR/3hcef34zXkfcEfa+goCBHgcqVI/7uXz3LnlZemF3fhMJIwae8+\noTQMpz2Avb+OUdn+r308NmWo4YSv30txW/0E86NqkhBMZuPNxkcii41otIpiaDP4\nsTFNuvWbCQKBgQCngptrKtLjiuUJptOgwiW3a48ZPAtHF89rVCJqdPxnU5ooUWrD\n0QZwGYFq4GJsyzarna3Iz5FTNrvVZV9/4VdMf1ZIBb0ZzZmFE5IuwUzp7HurDC+y\nTnpaxbe5mgh449Y4lTDDOHdfRB9D65zsMRX1JzANczu5siHpJSj58ogtWQKBgQCC\n3vv7UUh57mEwbTlBFj9zv+yagmMSDt1ap28iHUCw5AE+EppFWZHpgOD3PGcUbhzP\nOxgGEIh/vIrv2xInq0iEKGoRRh9+q08QLYXpIZg9l0verGr2vWroYAY4kFWGYaEY\nycjV2ttgWzLpfXrv3TETeHJAn8Kiz5kMKiNs9obtgQKBgC3O1xeY/DP9CpkMn8cY\nT7ZvMFTProSFni8sYRnm+IUHSBziGi6P+nHz4jCrphdTaESGJ0RP+dpRxbjoLQLQ\n77KYlX8hMVJyc76NW0nqyGMcwlotkUc+SZqL6gchaFm2ABjcVk5ki6BSetVxELXo\nUl0UXOfPZ/7Ifb5LVvDJv/tp\n-----END PRIVATE KEY-----\n",
  "client_email": "cicdtesting@pc-api-8717560348823120216-346.iam.gserviceaccount.com",
  "client_id": "113022334770802389145",
  "auth_uri": "https://accounts.google.com/o/oauth2/auth",
  "token_uri": "https://oauth2.googleapis.com/token",
  "auth_provider_x509_cert_url": "https://www.googleapis.com/oauth2/v1/certs",
  "client_x509_cert_url": "https://www.googleapis.com/robot/v1/metadata/x509/cicdtesting%40pc-api-8717560348823120216-346.iam.gserviceaccount.com"
}
